<?xml version="1.0" encoding="UTF-8" standalone="no"?>
<!DOCTYPE svg PUBLIC "-//W3C//DTD SVG 1.1//EN" "http://www.w3.org/Graphics/SVG/1.1/DTD/svg11.dtd">
<svg width="100%" height="100%" viewBox="0 0 53 53" version="1.1" xmlns="http://www.w3.org/2000/svg" xmlns:xlink="http://www.w3.org/1999/xlink" xml:space="preserve" xmlns:serif="http://www.serif.com/" style="fill-rule:evenodd;clip-rule:evenodd;stroke-linecap:round;stroke-linejoin:round;stroke-miterlimit:1.5;">
    <g transform="matrix(1,0,0,1,-4752.1,-1748.47)">
        <g transform="matrix(2.09106,0,0,2.05715,5048.68,247.149)">
            <g>
                <g transform="matrix(1.32841,0,0,1.3503,-6801.88,579.064)">
                    <circle cx="5023.01" cy="121.083" r="9" style="fill:rgb(0,31,53);stroke:white;stroke-width:0.9px;"/>
                </g>
                <g transform="matrix(0.478227,0,0,0.486108,-1397.95,-136.561)">
                    <text x="2647.65px" y="1815.31px" style="font-family:'Calibri', sans-serif;font-size:22px;fill:white;">$</text>
                </g>
            </g>
        </g>
    </g>
</svg>
