<?xml version="1.0" encoding="UTF-8" standalone="no"?>
<!DOCTYPE svg PUBLIC "-//W3C//DTD SVG 1.1//EN" "http://www.w3.org/Graphics/SVG/1.1/DTD/svg11.dtd">
<svg width="100%" height="100%" viewBox="0 0 28 28" version="1.1" xmlns="http://www.w3.org/2000/svg" xmlns:xlink="http://www.w3.org/1999/xlink" xml:space="preserve" xmlns:serif="http://www.serif.com/" style="fill-rule:evenodd;clip-rule:evenodd;stroke-linecap:round;stroke-linejoin:round;stroke-miterlimit:1.5;">
    <g transform="matrix(1,0,0,1,-5812.81,-1494.26)">
        <g transform="matrix(1,0,0,1,474.073,-0.0320449)">
            <g transform="matrix(1.44444,0,0,1.44444,-1903.07,1333.04)">
                <g>
                    <g>
                        <circle cx="5023.01" cy="121.083" r="9" style="fill:rgb(0,31,53);stroke:white;stroke-width:0.9px;"/>
                    </g>
                </g>
            </g>
        </g>
        <g transform="matrix(0.0504166,0,0,0.0538475,5774.46,1499.97)">
            <g transform="matrix(0.588748,0,0,0.563137,877.793,-2.45342)">
                <path d="M488,136L480,136L480,104C479.993,99.616 476.384,96.012 472,96.012C471.652,96.012 471.305,96.035 470.96,96.08L464,96.96L464,64C464.013,61.522 462.855,59.177 460.88,57.68C458.925,56.182 456.391,55.651 454,56.24L160.56,131.52L190.4,79.84C193.846,73.766 195.665,66.903 195.68,59.92C195.68,59.894 195.68,59.868 195.68,59.842C195.68,37.898 177.623,19.842 155.68,19.842C141.408,19.842 128.177,27.48 121.04,39.84L21.44,212.48C17.878,218.572 16,225.503 16,232.56L16,331.52C15.988,335.227 16.5,338.916 17.52,342.48L43.04,432L40,432C35.611,432 32,435.611 32,440L32,488C32,492.389 35.611,496 40,496L216,496C220.389,496 224,492.389 224,488L224,440C224,435.611 220.389,432 216,432L216,411.92C216.022,397.046 210.117,382.758 199.6,372.24L187.28,360L488,360C492.389,360 496,356.389 496,352L496,144C496,139.611 492.389,136 488,136ZM464,113.12L464,136L290.16,136L464,113.12ZM448,74.32L448,99.12L249.52,125.2L448,74.32ZM208,480L48,480L48,448L208,448L208,480ZM160.64,355.04C161.037,356.01 161.637,356.883 162.4,357.6L162.32,357.68L188.24,383.6C195.805,391.072 200.047,401.287 200,411.92L200,432L59.68,432L32.88,338.16C32.307,335.993 32.012,333.762 32,331.52L32,232.56C31.987,228.337 33.121,224.189 35.28,220.56L134.96,47.84C139.191,40.431 147.095,35.843 155.627,35.843C159.865,35.843 164.026,36.974 167.68,39.12C175.162,43.342 179.77,51.329 179.68,59.92C179.671,64.104 178.567,68.214 176.48,71.84L139.44,136L120,136C115.611,136 112,139.611 112,144L112,312C112.018,315.242 113.974,318.176 116.96,319.44C120.003,320.666 123.505,319.902 125.76,317.52L196.32,244.56C200.826,240.081 206.927,237.564 213.28,237.564C224.725,237.564 234.663,245.732 236.88,256.96C237.04,258.56 237.2,260.16 237.28,261.44C237.219,267.79 234.693,273.874 230.24,278.4L162.32,346.32C160.055,348.616 159.39,352.067 160.64,355.04ZM480,344L187.28,344L238.08,293.28C252.884,315.091 277.64,328.13 304,328C304.023,328 304.047,328 304.07,328C347.957,328 384.07,291.887 384.07,248C384.07,204.113 347.957,168 304.07,168C269.136,168 238.055,190.882 227.68,224.24C212.889,218.595 196.085,222.176 184.88,233.36L128,292.24L128,152L480,152L480,344ZM252.64,254.4C251.193,246.483 247.402,239.179 241.76,233.44C248.437,204.394 274.509,183.636 304.312,183.636C339.523,183.636 368.496,212.61 368.496,247.82C368.496,283.03 339.523,312.004 304.312,312.004C281.348,312.004 260.068,299.679 248.64,279.76C251.56,274 253.146,267.656 253.28,261.2C253.2,259.04 252.96,256.96 252.64,254.4Z" style="fill:rgb(0,230,255);fill-rule:nonzero;"/>
                <path d="M304,272C299.611,272 296,268.389 296,264L280,264C280.042,274.11 286.468,283.158 296,286.528L296,296L312,296L312,286.528C321.557,283.162 327.989,274.077 327.989,263.944C327.989,250.809 317.181,240 304.045,240C304.03,240 304.015,240 304,240C299.611,240 296,236.389 296,232C296,227.611 299.611,224 304,224C308.389,224 312,227.611 312,232L328,232C327.958,221.89 321.532,212.842 312,209.472L312,200L296,200L296,209.472C286.443,212.838 280.011,221.923 280.011,232.056C280.011,245.191 290.819,256 303.955,256C303.97,256 303.985,256 304,256C308.389,256 312,259.611 312,264C312,268.389 308.389,272 304,272Z" style="fill:rgb(0,230,255);fill-rule:nonzero;"/>
                <path d="M160,198.984C171.245,196.056 180.056,187.245 182.984,176L200,176L200,160L176,160C171.611,160 168,163.611 168,168C168,176.777 160.777,184 152,184C147.611,184 144,187.611 144,192L144,216L160,216L160,198.984Z" style="fill:rgb(0,230,255);fill-rule:nonzero;"/>
                <path d="M448,206.984L448,224L464,224L464,200C464,195.611 460.389,192 456,192C447.223,192 440,184.777 440,176C440,171.611 436.389,168 432,168L408,168L408,184L425.016,184C427.944,195.245 436.755,204.056 448,206.984Z" style="fill:rgb(0,230,255);fill-rule:nonzero;"/>
                <path d="M440,320C440,311.223 447.223,304 456,304C460.389,304 464,300.389 464,296L464,272L448,272L448,289.016C436.755,291.944 427.944,300.755 425.016,312L408,312L408,328L432,328C436.389,328 440,324.389 440,320Z" style="fill:rgb(0,230,255);fill-rule:nonzero;"/>
            </g>
        </g>
    </g>
</svg>
