<?xml version="1.0" encoding="UTF-8" standalone="no"?>
<!DOCTYPE svg PUBLIC "-//W3C//DTD SVG 1.1//EN" "http://www.w3.org/Graphics/SVG/1.1/DTD/svg11.dtd">
<svg width="100%" height="100%" viewBox="0 0 23 24" version="1.1" xmlns="http://www.w3.org/2000/svg" xmlns:xlink="http://www.w3.org/1999/xlink" xml:space="preserve" xmlns:serif="http://www.serif.com/" style="fill-rule:evenodd;clip-rule:evenodd;stroke-linejoin:round;stroke-miterlimit:1.41421;">
    <g transform="matrix(1,0,0,1,-5580.89,-1440.75)">
        <g transform="matrix(1,0,0,1,568.74,-58.6987)">
            <g transform="matrix(1.55252,0,0,1.52735,5224.36,473.736)">
                <g>
                    <g>
                        <g>
                            <g>
                                <g transform="matrix(1.03962,0,0,1.05676,-2823.23,-1184.34)">
                                    <ellipse cx="2591.27" cy="1763.35" rx="7.125" ry="7.125" style="fill:rgb(24,108,217);"/>
                                </g>
                                <g transform="matrix(0.644115,0,0,0.65473,-1836.93,-503.231)">
                                    <path d="M2655.01,1807.21C2655.01,1807.52 2654.97,1807.81 2654.89,1808.06C2654.8,1808.32 2654.68,1808.54 2654.53,1808.74C2654.37,1808.93 2654.19,1809.1 2653.98,1809.24C2653.77,1809.38 2653.53,1809.5 2653.28,1809.59C2653.02,1809.68 2652.75,1809.75 2652.46,1809.79C2652.17,1809.84 2651.85,1809.86 2651.49,1809.86L2649.14,1809.86C2648.99,1809.86 2648.87,1809.81 2648.76,1809.73C2648.66,1809.64 2648.61,1809.49 2648.61,1809.29L2648.61,1801.58C2648.61,1801.38 2648.66,1801.24 2648.76,1801.15C2648.87,1801.06 2648.99,1801.01 2649.14,1801.01L2651.37,1801.01C2651.91,1801.01 2652.37,1801.06 2652.74,1801.15C2653.12,1801.24 2653.43,1801.38 2653.69,1801.56C2653.95,1801.75 2654.15,1801.98 2654.28,1802.26C2654.42,1802.55 2654.49,1802.88 2654.49,1803.26C2654.49,1803.48 2654.46,1803.68 2654.41,1803.87C2654.35,1804.06 2654.27,1804.23 2654.17,1804.38C2654.06,1804.54 2653.93,1804.67 2653.78,1804.79C2653.63,1804.91 2653.45,1805.01 2653.26,1805.08C2653.51,1805.13 2653.74,1805.21 2653.95,1805.32C2654.16,1805.43 2654.35,1805.58 2654.51,1805.76C2654.66,1805.94 2654.79,1806.15 2654.88,1806.39C2654.97,1806.63 2655.01,1806.91 2655.01,1807.21ZM2652.69,1803.48C2652.69,1803.3 2652.66,1803.14 2652.61,1803C2652.55,1802.86 2652.47,1802.74 2652.36,1802.65C2652.25,1802.56 2652.12,1802.49 2651.95,1802.43C2651.78,1802.38 2651.56,1802.36 2651.28,1802.36L2650.37,1802.36L2650.37,1804.66L2651.38,1804.66C2651.64,1804.66 2651.85,1804.63 2652,1804.56C2652.16,1804.5 2652.28,1804.42 2652.39,1804.31C2652.49,1804.2 2652.57,1804.08 2652.62,1803.93C2652.67,1803.79 2652.69,1803.64 2652.69,1803.48ZM2653.15,1807.27C2653.15,1807.06 2653.12,1806.88 2653.05,1806.72C2652.98,1806.56 2652.88,1806.42 2652.75,1806.31C2652.61,1806.2 2652.45,1806.12 2652.24,1806.06C2652.03,1806 2651.77,1805.97 2651.44,1805.97L2650.37,1805.97L2650.37,1808.49L2651.67,1808.49C2651.92,1808.49 2652.13,1808.46 2652.3,1808.41C2652.47,1808.35 2652.62,1808.28 2652.75,1808.17C2652.87,1808.07 2652.97,1807.94 2653.04,1807.79C2653.11,1807.64 2653.15,1807.46 2653.15,1807.27Z" style="fill:white;fill-rule:nonzero;"/>
                                </g>
                            </g>
                        </g>
                    </g>
                </g>
            </g>
        </g>
    </g>
</svg>
