<?xml version="1.0" encoding="UTF-8" standalone="no"?>
<!DOCTYPE svg PUBLIC "-//W3C//DTD SVG 1.1//EN" "http://www.w3.org/Graphics/SVG/1.1/DTD/svg11.dtd">
<svg width="100%" height="100%" viewBox="0 0 13 13" version="1.1" xmlns="http://www.w3.org/2000/svg" xmlns:xlink="http://www.w3.org/1999/xlink" xml:space="preserve" xmlns:serif="http://www.serif.com/" style="fill-rule:evenodd;clip-rule:evenodd;stroke-linejoin:round;stroke-miterlimit:1.41421;">
    <g transform="matrix(1,0,0,1,-6466.93,-1499.29)">
        <g transform="matrix(1,0,0,1,1291.41,-2.69871)">
            <g transform="matrix(0.0457305,0,0,0.0457305,5170.13,1501.46)">
                <g>
                    <path d="M380.775,33.468C394.429,47.113 394.429,69.244 380.775,82.889L363.119,100.545L301.971,39.397L319.627,21.741C333.281,8.092 355.411,8.092 369.061,21.741L380.775,33.468Z" style="fill:rgb(205,147,8);fill-rule:nonzero;"/>
                    <path d="M357.691,106.664L208.752,255.616L147.591,194.617L296.679,45.8L357.691,106.664Z" style="fill:rgb(205,147,8);fill-rule:nonzero;"/>
                    <path d="M142.027,199.341L203.175,260.489L202.606,261.059L118.032,284.488L141.458,199.911L142.027,199.341Z" style="fill:rgb(205,147,8);fill-rule:nonzero;"/>
                </g>
            </g>
        </g>
    </g>
</svg>
