<?xml version="1.0" encoding="UTF-8" standalone="no"?>
<!DOCTYPE svg PUBLIC "-//W3C//DTD SVG 1.1//EN" "http://www.w3.org/Graphics/SVG/1.1/DTD/svg11.dtd">
<svg width="100%" height="100%" viewBox="0 0 13 14" version="1.1" xmlns="http://www.w3.org/2000/svg" xmlns:xlink="http://www.w3.org/1999/xlink" xml:space="preserve" xmlns:serif="http://www.serif.com/" style="fill-rule:evenodd;clip-rule:evenodd;stroke-linejoin:round;stroke-miterlimit:1.41421;">
    <g transform="matrix(1,0,0,1,-6025.1,-1494.79)">
        <g transform="matrix(1,0,0,1,1291.41,-2.69871)">
            <g transform="matrix(1.40483,0,0,1.13176,1668.11,-1.93641)">
                <path d="M2182.17,1324.87L2182.17,1337.2L2190.79,1331.07L2182.17,1324.87Z" style="fill:rgb(34,205,240);"/>
            </g>
        </g>
    </g>
</svg>
