<?xml version="1.0" encoding="UTF-8" standalone="no"?>
<!DOCTYPE svg PUBLIC "-//W3C//DTD SVG 1.1//EN" "http://www.w3.org/Graphics/SVG/1.1/DTD/svg11.dtd">
<svg width="100%" height="100%" viewBox="0 0 28 28" version="1.1" xmlns="http://www.w3.org/2000/svg" xmlns:xlink="http://www.w3.org/1999/xlink" xml:space="preserve" xmlns:serif="http://www.serif.com/" style="fill-rule:evenodd;clip-rule:evenodd;stroke-linecap:round;stroke-linejoin:round;stroke-miterlimit:1.5;">
    <g transform="matrix(1,0,0,1,-6291.47,-1379.29)">
        <g transform="matrix(1,0,0,1,1291.41,-2.69871)">
            <g transform="matrix(1.44444,0,0,1.44444,-2241.73,1220.74)">
                <circle cx="5023.01" cy="121.083" r="9" style="fill:rgb(0,31,53);stroke:white;stroke-width:0.9px;"/>
            </g>
        </g>
        <g transform="matrix(1,0,0,1,1291.41,-2.69871)">
            <g transform="matrix(0.398868,0,0,0.432863,3721.02,1292.16)">
                <path d="M3260.86,232.785C3260.86,230.119 3258.51,227.955 3255.62,227.955L3227.9,227.955C3225.01,227.955 3222.66,230.119 3222.66,232.785L3222.66,242.445C3222.66,245.111 3225.01,247.275 3227.9,247.275L3235.08,247.275L3230.3,255.555L3245.26,247.275L3255.62,247.275C3258.51,247.275 3260.86,245.111 3260.86,242.445L3260.86,232.785Z" style="fill:white;"/>
            </g>
        </g>
        <g transform="matrix(1,0,0,1,1291.41,-2.69871)">
            <g transform="matrix(0.318281,0,0,0.318282,4007.24,1312.06)">
                <circle cx="3151.86" cy="260.955" r="3.4" style="fill:rgb(0,4,67);"/>
            </g>
            <g transform="matrix(0.318281,0,0,0.318282,4010.92,1311.99)">
                <circle cx="3151.86" cy="260.955" r="3.4" style="fill:rgb(0,4,67);"/>
            </g>
            <g transform="matrix(0.318281,0,0,0.318282,4014.51,1312.06)">
                <circle cx="3151.86" cy="260.955" r="3.4" style="fill:rgb(0,4,67);"/>
            </g>
        </g>
    </g>
</svg>
